Data Wrangling with R: Day 1
…
```r
pivot_longer(census_2016_G17,
             cols = -STE_CODE_2016,
             names_to = "group",
             values_to = "count")
```

```
## # A tibble: 4,320 x 3
##    STE_CODE_2016 group                          count
##            <int> <chr>                          <int>
##  1             1 M_Neg_Nil_income_15_19_yrs    109473
##  2             1 M_Neg_Nil_income_20_24_yrs     33797
##  3             1 M_Neg_Nil_income_25_34_yrs     25398
##  4             1 M_Neg_Nil_income_35_44_yrs     14472
##  5             1 M_Neg_Nil_income_45_54_yrs     15235
##  6             1 M_Neg_Nil_income_55_64_yrs     22736
##  7             1 M_Neg_Nil_income_65_74_yrs     15465
##  8             1 M_Neg_Nil_income_75_84_yrs      6576
##  9             1 M_Negtve_Nil_incme_85_yrs_ovr   2320
## 10             1 M_Neg_Nil_income_Tot          245480
## # … with 4,310 more rows
```
…
```
## # A tibble: 2,430 x 7
##    STE_CODE_2016 sex   income_min income_max age_min age_max  count
##            <int> <chr>      <dbl>      <dbl>   <dbl>   <dbl>  <int>
##  1             1 M           -Inf          0      15      19 109473
##  2             1 M           -Inf          0      20      24  33797
##  3             1 M           -Inf          0      25      34  25398
##  4             1 M           -Inf          0      35      44  14472
##  5             1 M           -Inf          0      45      54  15235
##  6             1 M           -Inf          0      55      64  22736
##  7             1 M           -Inf          0      65      74  15465
##  8             1 M           -Inf          0      75      84   6576
##  9             1 M           -Inf          0      85     Inf   2320
## 10             1 M              1        149      15      19  41865
## # … with 2,420 more rows
```
…
```
## # A tibble: 2,430 x 7
##    STE_CODE_2016 sex   income_min income_max age_min age_max  value
##            <int> <chr>      <dbl>      <dbl>   <dbl>   <dbl>  <int>
##  1             1 M           -Inf          0      15      19 109473
##  2             1 M           -Inf          0      20      24  33797
##  3             1 M           -Inf          0      25      34  25398
##  4             1 M           -Inf          0      35      44  14472
##  5             1 M           -Inf          0      45      54  15235
##  6             1 M           -Inf          0      55      64  22736
##  7             1 M           -Inf          0      65      74  15465
##  8             1 M           -Inf          0      75      84   6576
##  9             1 M           -Inf          0      85     Inf   2320
## 10             1 M              1        149      15      19  41865
## # … with 2,420 more rows
```
…
