Data Wrangling with R: Day 1
…
---

#  `c_across` .tag.flash.animated[NEW in `dplyr` v1.0.0]

* Remember tidy selection only works with functions that are compatible

```r
mtcars %>% 
  rowwise() %>% 
  summarise(disp = disp, hp = hp, drat = drat, wt = wt,
*           score = sum(c_across(disp:wt)))
```

```
## # A tibble: 32 x 5
##     disp    hp  drat    wt score
##    <dbl> <dbl> <dbl> <dbl> <dbl>
##  1  160    110  3.9   2.62  277.
##  2  160    110  3.9   2.88  277.
##  3  108     93  3.85  2.32  207.
##  4  258    110  3.08  3.22  374.
##  5  360    175  3.15  3.44  542.
##  6  225    105  2.76  3.46  336.
##  7  360    245  3.21  3.57  612.
##  8  147.    62  3.69  3.19  216.
##  9  141.    95  3.92  3.15  243.
## 10  168.   123  3.92  3.44  298.
## # … with 22 more rows
```
…
