Data Wrangling with R: Day 2
…
---

# Conditional maps in `purrr`

* .monash-blue[`map_if`]`(.x, .p, .f, ...)` uses `.p` to determine if `.f` will be applied to `.x` 
* .monash-blue[`map_at`]`(.x, .at, .f, ...)` applies `.f` to `.x` at `.at` (name or position)
* .monash-blue[`map_depth`]`(.x, .depth, .f, ...)` apples `.f` to `.x` at a specific depth level of a nested vector
* **The return object is always a list**

```r
map_if(df, is.factor, as.character) %>% as_tibble()
```

```
## # A tibble: 21,483 x 9
##     year marital     age race  rincome    partyid     relig     denom    tvhours
##    <int> <chr>     <int> <chr> <chr>      <chr>       <chr>     <chr>      <int>
##  1  2000 Never ma…    26 White $8000 to … Ind,near r… Protesta… Souther…      12
##  2  2000 Divorced     48 White $8000 to … Not str re… Protesta… Baptist…      NA
##  3  2000 Widowed      67 White Not appli… Independent Protesta… No deno…       2
##  4  2000 Never ma…    39 White Not appli… Ind,near r… Orthodox… Not app…       4
##  5  2000 Divorced     25 White Not appli… Not str de… None      Not app…       1
##  6  2000 Married      25 White $20000 - … Strong dem… Protesta… Souther…      NA
##  7  2000 Never ma…    36 White $25000 or… Not str re… Christian Not app…       3
##  8  2000 Divorced     44 White $7000 to … Ind,near d… Protesta… Luthera…      NA
##  9  2000 Married      44 White $25000 or… Not str de… Protesta… Other          0
## 10  2000 Married      47 White $25000 or… Strong rep… Protesta… Souther…       3
## # … with 21,473 more rows
```
…
  tibble(intercept_lm = coef(fit_lm)[1], intercept_rlm = coef(fit_rlm)[1],
         slope_lm = coef(fit_lm)[2], slope_rlm = coef(fit_rlm)[2], sim = .x)})
```

```
## # A tibble: 200 x 5
##    intercept_lm intercept_rlm slope_lm slope_rlm   sim
##           <dbl>         <dbl>    <dbl>     <dbl> <int>
##  1        2.23          1.02     -2.09     -2.00     1
##  2        0.982         1.04     -1.83     -2.01     2
##  3        2.22          1.00     -2.09     -2.00     3
##  4        0.972         1.06     -1.82     -2.01     4
##  5        1.75          1.04     -1.97     -1.99     5
##  6        0.977         1.06     -1.82     -2.00     6
##  7        1.54          0.849    -1.95     -1.97     7
##  8        1.99          0.955    -2.04     -1.99     8
##  9        1.38          1.04     -1.91     -2.01     9
## 10        0.550         0.989    -1.73     -1.99    10
## # … with 190 more rows
```
…
  tibble(intercept_lm = coef(fit_lm)[1], intercept_rlm = coef(fit_rlm)[1],
         slope_lm = coef(fit_lm)[2], slope_rlm = coef(fit_rlm)[2], sim = .x)})
```

```
## # A tibble: 200 x 5
##    intercept_lm intercept_rlm slope_lm slope_rlm   sim
##           <dbl>         <dbl>    <dbl>     <dbl> <int>
##  1        2.17          1.12     -2.07     -2.01     1
##  2        1.51          0.969    -1.94     -2.00     2
##  3        1.93          0.881    -2.04     -2.00     3
##  4        1.47          0.901    -1.94     -1.98     4
##  5        2.47          0.968    -2.15     -2.00     5
##  6        1.27          0.948    -1.90     -2.00     6
##  7        0.942         0.970    -1.81     -1.98     7
##  8        2.42          0.835    -2.13     -1.96     8
##  9        1.44          1.04     -1.93     -2.01     9
## 10        1.81          1.10     -2.00     -2.02    10
## # … with 190 more rows
```
…
