Data Wrangling with R: Day 2
…
# Nesting data with `tidyr`

---

# Nest data

.grid[
.item50[

```r
df %>% as_tibble()
```

```
## # A tibble: 810 x 5
##     year variety height period temperature
##    <int> <fct>    <dbl> <chr>        <dbl>
##  1  1974 G01       81   T1            8.36
##  2  1974 G01       81   T2            9.6 
##  3  1974 G01       81   T3           12.1 
##  4  1974 G01       81   T4           12.1 
##  5  1974 G01       81   T5           18.4 
##  6  1974 G01       81   T6           13.8 
##  7  1975 G01       67.3 T1            7.66
##  8  1975 G01       67.3 T2           11.7 
##  9  1975 G01       67.3 T3           10.1 
## 10  1975 G01       67.3 T4           16.0 
## # … with 800 more rows
```
…
{{content}}

]

]

--

```r
df %>% 
  nest(weather = period:temperature)
```

```
# # A tibble: 135 x 4
#     year variety height weather         
#    <int> <fct>    <dbl> <list>          
#  1  1974 G01       81   <tibble [6 × 2]>
#  2  1975 G01       67.3 <tibble [6 × 2]>
#  3  1976 G01       71.5 <tibble [6 × 2]>
#  4  1977 G01       64.3 <tibble [6 × 2]>
#  5  1978 G01       55.8 <tibble [6 × 2]>
#  6  1979 G01       84.9 <tibble [6 × 2]>
#  7  1980 G01       86.2 <tibble [6 × 2]>
#  8  1981 G01       88   <tibble [6 × 2]>
#  9  1982 G01       72   <tibble [6 × 2]>
# 10  1974 G02       72.3 <tibble [6 × 2]>
# # … with 125 more rows
```

---

# Using nested data: `rowwise`

```r
df %>% 
  nest(weather = period:temperature) %>% 
* rowwise() %>%
* mutate(avg_temp = mean(weather$temperature))
```

```
# # A tibble: 135 x 5
# # Rowwise: 
#     year variety height weather          avg_temp
#    <int> <fct>    <dbl> <list>              <dbl>
#  1  1974 G01       81   <tibble [6 × 2]>     12.4
#  2  1975 G01       67.3 <tibble [6 × 2]>     13.4
#  3  1976 G01       71.5 <tibble [6 × 2]>     14.6
#  4  1977 G01       64.3 <tibble [6 × 2]>     14.7
#  5  1978 G01       55.8 <tibble [6 × 2]>     13.8
#  6  1979 G01       84.9 <tibble [6 × 2]>     13.8
#  7  1980 G01       86.2 <tibble [6 × 2]>     14.5
#  8  1981 G01       88   <tibble [6 × 2]>     14.2
#  9  1982 G01       72   <tibble [6 × 2]>     12.9
# 10  1974 G02       72.3 <tibble [6 × 2]>     12.4
# # … with 125 more rows
```
---

# Using nested data: `group_by`

* `rowwise` is different to using `group_by` even if `group_by` refers to each row

```r
df %>% 
  nest(weather = period:temperature) %>% 
* group_by(year, variety) %>%
* mutate(avg_temp = mean(weather[[1]]$temperature))
```

```
# # A tibble: 135 x 5
# # Groups:   year, variety [135]
#     year variety height weather          avg_temp
#    <int> <fct>    <dbl> <list>              <dbl>
#  1  1974 G01       81   <tibble [6 × 2]>     12.4
#  2  1975 G01       67.3 <tibble [6 × 2]>     13.4
#  3  1976 G01       71.5 <tibble [6 × 2]>     14.6
#  4  1977 G01       64.3 <tibble [6 × 2]>     14.7
#  5  1978 G01       55.8 <tibble [6 × 2]>     13.8
#  6  1979 G01       84.9 <tibble [6 × 2]>     13.8
#  7  1980 G01       86.2 <tibble [6 × 2]>     14.5
#  8  1981 G01       88   <tibble [6 × 2]>     14.2
#  9  1982 G01       72   <tibble [6 × 2]>     12.9
# 10  1974 G02       72.3 <tibble [6 × 2]>     12.4
# # … with 125 more rows
```
…
---

# `broom::augment`

```r
fit %>% 
  augment()
```

```
## # A tibble: 50 x 8
##    speed  dist .fitted  .resid .std.resid   .hat .sigma   .cooksd
##    <dbl> <dbl>   <dbl>   <dbl>      <dbl>  <dbl>  <dbl>     <dbl>
##  1     4     2    8.62 -4.62      -1.52   0.0716   3.11 0.0888   
##  2     4    10    9.94 -5.94      -1.93   0.0534   3.06 0.106    
##  3     7     4    8.95 -1.95      -0.638  0.0667   3.18 0.0146   
##  4     7    22   11.9  -4.93      -1.59   0.0335   3.10 0.0437   
##  5     8    16   10.9  -2.93      -0.950  0.0424   3.16 0.0200   
##  6     9    10    9.94 -0.940     -0.306  0.0534   3.19 0.00264  
##  7    10    18   11.3  -1.26      -0.409  0.0392   3.18 0.00340  
##  8    10    26   12.6  -2.59      -0.832  0.0289   3.17 0.0103   
##  9    10    34   13.9  -3.91      -1.25   0.0225   3.14 0.0181   
## 10    11    17   11.1  -0.0986    -0.0319 0.0407   3.19 0.0000216
## # … with 40 more rows
```
…
